…
``` r
> GTFSwizard::get_servicepattern(for_gtfs)
## A tibble: 3 × 3
#  service_id service_pattern  pattern_frequency
#  <chr>      <fct>                        <int>
#1 U          servicepattern-1                65
#2 S          servicepattern-2                13
#3 D          servicepattern-3                13
```

Most of the functions will consider service_patterns, _e.g._ `get_frequency()` and `plot_routefrequency()`.

```r
> GTFSwizard::get_frequency(for_gtfs)
## A tibble: 667 × 4
#   route_id daily.frequency service_pattern  pattern_frequency
#   <chr>              <int> <fct>                        <int>
# 1 004                   66 servicepattern-1                65
# 2 011                   53 servicepattern-1                65
# 3 011                   30 servicepattern-2                13
# 4 011                   17 servicepattern-3                13
# 5 012                   53 servicepattern-1                65
# 6 012                   28 servicepattern-2                13
# 7 012                   20 servicepattern-3                13
# 8 014                   30 servicepattern-1                65
# 9 014                   19 servicepattern-2                13
#10 014                   19 servicepattern-3                13
## ℹ 657 more rows
## ℹ Use `print(n = ...)` to see more rows
```
…
```

GTFSwizard reconstructs missing shape tables using the `get_shapes()` function. Variations of this function can create `simple feature` objects from `stops` or `shapes` tables, using `get_stops_sf()` or `get_shapes_sf()` functions, or even standard GTFS `shapes` data frame from `simple feature` shapes object, using `get_shapes_df()` function.

``` r
> gtfs$shapes
#NULL

> gtfs <- GTFSwizard::get_shapes(gtfs)

> gtfs$shapes
## A tibble: 6,830 × 5
#   shape_id shape_pt_lon shape_pt_lat shape_pt_sequence shape_dist_traveled
#   <chr>           <dbl>        <dbl>             <int>               <dbl>
# 1 shape-1         -38.7        -3.96                 1                  0 
# 2 shape-1         -38.7        -3.95                 2                499.
# 3 shape-1         -38.7        -3.96                 3               1428 
# 4 shape-1         -38.7        -3.98                 4               3404.
# 5 shape-1         -38.7        -3.97                 5               5490.
# 6 shape-1         -38.7        -3.97                 6               6248.
# 7 shape-1         -38.7        -3.98                 7               7871.
# 8 shape-1         -38.8        -3.97                 8              11398.
# 9 shape-1         -38.7        -3.97                 9              13093.
#10 shape-1         -38.8        -3.97                10              13395 
## ℹ 6,820 more rows
## ℹ Use `print(n = ...)` to see more rows

> GTFSwizard::get_shapes_sf(for_gtfs$shapes)
#Simple feature collection with 509 features and 2 fields
#Geometry type: LINESTRING
#Dimension:     XY
#Bounding box:  xmin: -38.65624 ymin: -3.897338 xmax: -38.41016 ymax: -3.694365
#Geodetic CRS:  WGS 84
## A tibble: 509 × 3
#   shape_id   shape_dist_traveled                                                              geometry
#   <chr>                    <dbl>                                                      <LINESTRING [°]>
# 1 shape004-I                   0 (-38.50181 -3.831178, -38.50185 -3.831165, -38.50242 -3.831016, -38.…
# 2 shape004-V                   0 (-38.4845 -3.738462, -38.48455 -3.738554, -38.48457 -3.738583, -38.4…
# 3 shape011-I                   0 (-38.53249 -3.722036, -38.53255 -3.722017, -38.53286 -3.721924, -38.…
# 4 shape012-V                   0 (-38.53251 -3.722151, -38.53242 -3.722182, -38.53195 -3.722339, -38.…
# 5 shape014-V                   0 (-38.53121 -3.757169, -38.53111 -3.757062, -38.53102 -3.756946, -38.…
# 6 shape015-I                   0 (-38.60755 -3.772986, -38.60752 -3.772894, -38.60741 -3.772499, -38.…
# 7 shape015-V                   0 (-38.58454 -3.737546, -38.58455 -3.73752, -38.58455 -3.737483, -38.5…
# 8 shape016-I                   0 (-38.58995 -3.709432, -38.59 -3.709269, -38.59003 -3.70917, -38.5900…
# 9 shape016-V                   0 (-38.48468 -3.738597, -38.48476 -3.738568, -38.48484 -3.738538, -38.…
#10 shape017-I                   0 (-38.47904 -3.796202, -38.47898 -3.796908, -38.47975 -3.796987, -38.…
## ℹ 499 more rows
## ℹ Use `print(n = ...)` to see more rows

> GTFSwizard::get_stops_sf(for_gtfs$stops)
#Simple feature collection with 4793 features and 3 fields
#Geometry type: POINT
#Dimension:     XY
#Bounding box:  xmin: -38.64515 ymin: -3.894503 xmax: -38.4108 ymax: -3.694365
#Geodetic CRS:  WGS 84
## A tibble: 4,793 × 4
#   stop_id stop_name                      wheelchair_boarding              geometry
#   <chr>   <chr>                                        <int>           <POINT [°]>
# 1 10      AVENIDA CEL CARVALHO, 1135                      NA  (-38.5906 -3.702286)
# 2 1000    RUA DOR JOAO MOREIRA, 489                       NA (-38.52899 -3.722157)
# 3 1001    RUA DOR JOAO MOREIRA, 163                       NA (-38.52601 -3.723169)
# 4 1009    AVENIDA TRISTÃO GONÇALVES, 500                  NA (-38.53285 -3.725926)
# 5 1010    AVENIDA IMPERADOR, 550                          NA (-38.53421 -3.726137)
# 6 1013    AVENIDA IMPERADOR, 262                          NA  (-38.53348 -3.72369)
# 7 1014    RUA SAO PAULO, 955                              NA (-38.53403 -3.723879)
# 8 1015    RUA GUILHERME ROCHA, 1048                       NA (-38.53547 -3.724543)
# 9 1016    RUA GAL SAMPAIO, 951                            NA  (-38.53078 -3.72682)
#10 102     RUA BETA, 202                                   NA  (-38.60078 -3.71436)
## ℹ 4,783 more rows
## ℹ Use `print(n = ...)` to see more rows
```
…
